module gitlab.com/jrr/vault-friend

go 1.22

toolchain go1.22.1

require (
	github.com/go-logr/logr v1.4.1
	github.com/hashicorp/vault v1.10.0
	github.com/hashicorp/vault-plugin-secrets-kv v0.11.0
	github.com/hashicorp/vault/api v1.4.1
	github.com/hashicorp/vault/sdk v0.4.2-0.20220321211954-d7083ad326db
	github.com/onsi/ginkgo v1.16.4
	github.com/onsi/gomega v1.30.0
	github.com/pkg/errors v0.9.1
	k8s.io/api v0.26.10
	k8s.io/apimachinery v0.26.10
	k8s.io/client-go v0.26.10
	k8s.io/utils v0.0.0-20240102154912-e7106e64919e
	sigs.k8s.io/controller-runtime v0.14.7
)

require (
	cloud.google.com/go v0.65.0 // indirect
	github.com/Azure/azure-sdk-for-go v61.4.0+incompatible // indirect
	github.com/Azure/go-autorest v14.2.0+incompatible // indirect
	github.com/Azure/go-autorest/autorest v0.11.24 // indirect
	github.com/Azure/go-autorest/autorest/adal v0.9.18 // indirect
	github.com/Azure/go-autorest/autorest/azure/auth v0.5.11 // indirect
	github.com/Azure/go-autorest/autorest/azure/cli v0.4.5 // indirect
	github.com/Azure/go-autorest/autorest/date v0.3.0 // indirect
	github.com/Azure/go-autorest/autorest/to v0.4.0 // indirect
	github.com/Azure/go-autorest/autorest/validation v0.3.1 // indirect
	github.com/Azure/go-autorest/logger v0.2.1 // indirect
	github.com/Azure/go-autorest/tracing v0.6.0 // indirect
	github.com/DataDog/datadog-go v3.2.0+incompatible // indirect
	github.com/Jeffail/gabs v1.1.1 // indirect
	github.com/Masterminds/goutils v1.1.0 // indirect
	github.com/Masterminds/semver v1.5.0 // indirect
	github.com/Masterminds/sprig v2.22.0+incompatible // indirect
	github.com/NYTimes/gziphandler v1.1.1 // indirect
	github.com/StackExchange/wmi v1.2.1 // indirect
	github.com/aliyun/alibaba-cloud-sdk-go v0.0.0-20190620160927-9418d7b0cd0f // indirect
	github.com/armon/go-metrics v0.3.10 // indirect
	github.com/armon/go-radix v1.0.0 // indirect
	github.com/asaskevich/govalidator v0.0.0-20190424111038-f61b66f89f4a // indirect
	github.com/aws/aws-sdk-go v1.37.19 // indirect
	github.com/beorn7/perks v1.0.1 // indirect
	github.com/bgentry/speakeasy v0.1.0 // indirect
	github.com/boombuler/barcode v1.0.1-0.20190219062509-6c824513bacc // indirect
	github.com/cenkalti/backoff/v3 v3.2.2 // indirect
	github.com/cespare/xxhash/v2 v2.1.2 // indirect
	github.com/chrismalek/oktasdk-go v0.0.0-20181212195951-3430665dfaa0 // indirect
	github.com/circonus-labs/circonus-gometrics v2.3.1+incompatible // indirect
	github.com/circonus-labs/circonusllhist v0.1.3 // indirect
	github.com/davecgh/go-spew v1.1.1 // indirect
	github.com/denverdino/aliyungo v0.0.0-20190125010748-a747050bb1ba // indirect
	github.com/digitalocean/godo v1.7.5 // indirect
	github.com/dimchansky/utfbom v1.1.1 // indirect
	github.com/duosecurity/duo_api_golang v0.0.0-20190308151101-6c680f768e74 // indirect
	github.com/emicklei/go-restful/v3 v3.9.0 // indirect
	github.com/evanphx/json-patch/v5 v5.6.0 // indirect
	github.com/fatih/color v1.13.0 // indirect
	github.com/fsnotify/fsnotify v1.6.0 // indirect
	github.com/go-logr/zapr v1.2.3 // indirect
	github.com/go-ole/go-ole v1.2.5 // indirect
	github.com/go-openapi/jsonpointer v0.19.5 // indirect
	github.com/go-openapi/jsonreference v0.20.0 // indirect
	github.com/go-openapi/swag v0.19.14 // indirect
	github.com/go-sql-driver/mysql v1.5.0 // indirect
	github.com/go-test/deep v1.0.8 // indirect
	github.com/gogo/protobuf v1.3.2 // indirect
	github.com/golang-jwt/jwt/v4 v4.3.0 // indirect
	github.com/golang/groupcache v0.0.0-20210331224755-41bb18bfe9da // indirect
	github.com/golang/protobuf v1.5.3 // indirect
	github.com/golang/snappy v0.0.4 // indirect
	github.com/google/gnostic v0.5.7-v3refs // indirect
	github.com/google/go-cmp v0.6.0 // indirect
	github.com/google/go-metrics-stackdriver v0.2.0 // indirect
	github.com/google/go-querystring v1.1.0 // indirect
	github.com/google/gofuzz v1.1.0 // indirect
	github.com/google/uuid v1.3.0 // indirect
	github.com/googleapis/gax-go/v2 v2.0.5 // indirect
	github.com/gophercloud/gophercloud v0.1.0 // indirect
	github.com/hashicorp/errwrap v1.1.0 // indirect
	github.com/hashicorp/go-cleanhttp v0.5.2 // indirect
	github.com/hashicorp/go-discover v0.0.0-20210818145131-c573d69da192 // indirect
	github.com/hashicorp/go-hclog v1.1.0 // indirect
	github.com/hashicorp/go-immutable-radix v1.3.1 // indirect
	github.com/hashicorp/go-kms-wrapping v0.7.0 // indirect
	github.com/hashicorp/go-kms-wrapping/entropy v0.1.0 // indirect
	github.com/hashicorp/go-memdb v1.3.2 // indirect
	github.com/hashicorp/go-msgpack v1.1.5 // indirect
	github.com/hashicorp/go-multierror v1.1.1 // indirect
	github.com/hashicorp/go-plugin v1.4.3 // indirect
	github.com/hashicorp/go-raftchunking v0.6.3-0.20191002164813-7e9e8525653a // indirect
	github.com/hashicorp/go-retryablehttp v0.7.0 // indirect
	github.com/hashicorp/go-rootcerts v1.0.2 // indirect
	github.com/hashicorp/go-secure-stdlib/awsutil v0.1.5 // indirect
	github.com/hashicorp/go-secure-stdlib/base62 v0.1.2 // indirect
	github.com/hashicorp/go-secure-stdlib/mlock v0.1.2 // indirect
	github.com/hashicorp/go-secure-stdlib/parseutil v0.1.3 // indirect
	github.com/hashicorp/go-secure-stdlib/reloadutil v0.1.1 // indirect
	github.com/hashicorp/go-secure-stdlib/strutil v0.1.2 // indirect
	github.com/hashicorp/go-secure-stdlib/tlsutil v0.1.1 // indirect
	github.com/hashicorp/go-sockaddr v1.0.2 // indirect
	github.com/hashicorp/go-uuid v1.0.2 // indirect
	github.com/hashicorp/go-version v1.4.0 // indirect
	github.com/hashicorp/golang-lru v0.5.4 // indirect
	github.com/hashicorp/hcl v1.0.1-vault-3 // indirect
	github.com/hashicorp/mdns v1.0.4 // indirect
	github.com/hashicorp/raft v1.3.3 // indirect
	github.com/hashicorp/raft-autopilot v0.1.3 // indirect
	github.com/hashicorp/raft-boltdb/v2 v2.0.0-20210421194847-a7e34179d62c // indirect
	github.com/hashicorp/raft-snapshot v1.0.3 // indirect
	github.com/hashicorp/vic v1.5.1-0.20190403131502-bbfe86ec9443 // indirect
	github.com/hashicorp/yamux v0.0.0-20211028200310-0bc27b27de87 // indirect
	github.com/huandu/xstrings v1.3.2 // indirect
	github.com/imdario/mergo v0.3.12 // indirect
	github.com/jefferai/isbadcipher v0.0.0-20190226160619-51d2077c035f // indirect
	github.com/jefferai/jsonx v1.0.0 // indirect
	github.com/jmespath/go-jmespath v0.4.0 // indirect
	github.com/josharian/intern v1.0.0 // indirect
	github.com/joyent/triton-go v1.7.1-0.20200416154420-6801d15b779f // indirect
	github.com/json-iterator/go v1.1.12 // indirect
	github.com/keybase/go-crypto v0.0.0-20190403132359-d65b6b94177f // indirect
	github.com/lib/pq v1.10.3 // indirect
	github.com/linode/linodego v0.7.1 // indirect
	github.com/mailru/easyjson v0.7.6 // indirect
	github.com/mattn/go-colorable v0.1.12 // indirect
	github.com/mattn/go-isatty v0.0.14 // indirect
	github.com/matttproud/golang_protobuf_extensions v1.0.2 // indirect
	github.com/miekg/dns v1.1.41 // indirect
	github.com/mitchellh/cli v1.1.2 // indirect
	github.com/mitchellh/copystructure v1.2.0 // indirect
	github.com/mitchellh/go-homedir v1.1.0 // indirect
	github.com/mitchellh/go-testing-interface v1.14.0 // indirect
	github.com/mitchellh/mapstructure v1.4.3 // indirect
	github.com/mitchellh/reflectwalk v1.0.2 // indirect
	github.com/modern-go/concurrent v0.0.0-20180306012644-bacd9c7ef1dd // indirect
	github.com/modern-go/reflect2 v1.0.2 // indirect
	github.com/munnerz/goautoneg v0.0.0-20191010083416-a7dc8b61c822 // indirect
	github.com/nicolai86/scaleway-sdk v1.10.2-0.20180628010248-798f60e20bb2 // indirect
	github.com/nxadm/tail v1.4.8 // indirect
	github.com/oklog/run v1.1.0 // indirect
	github.com/oracle/oci-go-sdk v13.1.0+incompatible // indirect
	github.com/packethost/packngo v0.1.1-0.20180711074735-b9cb5096f54c // indirect
	github.com/patrickmn/go-cache v2.1.0+incompatible // indirect
	github.com/petermattis/goid v0.0.0-20180202154549-b0b1615b78e5 // indirect
	github.com/pierrec/lz4 v2.6.1+incompatible // indirect
	github.com/pires/go-proxyproto v0.6.1 // indirect
	github.com/pmezard/go-difflib v1.0.0 // indirect
	github.com/posener/complete v1.2.3 // indirect
	github.com/pquerna/otp v1.2.1-0.20191009055518-468c2dd2b58d // indirect
	github.com/prometheus/client_golang v1.14.0 // indirect
	github.com/prometheus/client_model v0.3.0 // indirect
	github.com/prometheus/common v0.37.0 // indirect
	github.com/prometheus/procfs v0.8.0 // indirect
	github.com/rboyer/safeio v0.2.1 // indirect
	github.com/renier/xmlrpc v0.0.0-20170708154548-ce4a1a486c03 // indirect
	github.com/ryanuber/go-glob v1.0.0 // indirect
	github.com/sasha-s/go-deadlock v0.2.0 // indirect
	github.com/sethvargo/go-limiter v0.7.1 // indirect
	github.com/shirou/gopsutil v3.21.5+incompatible // indirect
	github.com/sirupsen/logrus v1.8.1 // indirect
	github.com/softlayer/softlayer-go v0.0.0-20180806151055-260589d94c7d // indirect
	github.com/spf13/pflag v1.0.5 // indirect
	github.com/stretchr/testify v1.8.0 // indirect
	github.com/tencentcloud/tencentcloud-sdk-go v1.0.162 // indirect
	github.com/tklauser/go-sysconf v0.3.9 // indirect
	github.com/tklauser/numcpus v0.3.0 // indirect
	github.com/tv42/httpunix v0.0.0-20191220191345-2ba4b9c3382c // indirect
	github.com/vmware/govmomi v0.18.0 // indirect
	go.etcd.io/bbolt v1.3.6 // indirect
	go.opencensus.io v0.23.0 // indirect
	go.uber.org/atomic v1.9.0 // indirect
	go.uber.org/multierr v1.6.0 // indirect
	go.uber.org/zap v1.24.0 // indirect
	golang.org/x/crypto v0.14.0 // indirect
	golang.org/x/net v0.17.0 // indirect
	golang.org/x/oauth2 v0.0.0-20220223155221-ee480838109b // indirect
	golang.org/x/sync v0.1.0 // indirect
	golang.org/x/sys v0.13.0 // indirect
	golang.org/x/term v0.13.0 // indirect
	golang.org/x/text v0.13.0 // indirect
	golang.org/x/time v0.3.0 // indirect
	gomodules.xyz/jsonpatch/v2 v2.2.0 // indirect
	google.golang.org/api v0.30.0 // indirect
	google.golang.org/appengine v1.6.7 // indirect
	google.golang.org/genproto v0.0.0-20220502173005-c8bf987b8c21 // indirect
	google.golang.org/grpc v1.49.0 // indirect
	google.golang.org/protobuf v1.28.1 // indirect
	gopkg.in/inf.v0 v0.9.1 // indirect
	gopkg.in/ini.v1 v1.62.0 // indirect
	gopkg.in/resty.v1 v1.12.0 // indirect
	gopkg.in/square/go-jose.v2 v2.6.0 // indirect
	gopkg.in/tomb.v1 v1.0.0-20141024135613-dd632973f1e7 // indirect
	gopkg.in/yaml.v2 v2.4.0 // indirect
	gopkg.in/yaml.v3 v3.0.1 // indirect
	k8s.io/apiextensions-apiserver v0.26.10 // indirect
	k8s.io/component-base v0.26.10 // indirect
	k8s.io/klog/v2 v2.80.1 // indirect
	k8s.io/kube-openapi v0.0.0-20221012153701-172d655c2280 // indirect
	sigs.k8s.io/json v0.0.0-20220713155537-f223a00ba0e2 // indirect
	sigs.k8s.io/structured-merge-diff/v4 v4.2.3 // indirect
	sigs.k8s.io/yaml v1.3.0 // indirect
)
